<?xml version="1.0" standalone="no"?>
<!DOCTYPE svg PUBLIC "-//W3C//DTD SVG 1.1//EN" "http://www.w3.org/Graphics/SVG/1.1/DTD/svg11.dtd" >
<svg xmlns="http://www.w3.org/2000/svg">
<metadata>Generated by IcoMoon</metadata>
<defs>
<font id="icomoon" horiz-adv-x="1024">
<font-face units-per-em="1024" ascent="960" descent="-64" />
<missing-glyph horiz-adv-x="1024" />
<glyph unicode="&#x20;" horiz-adv-x="512" d="" />
<glyph unicode="&#xe900;" glyph-name="icon-henho" d="M932.8-64v832c0 0 0 1.6 0 1.6 35.2 40 64 86.4 91.2 137.6-38.4-9.6-68.8-20.8-102.4-24-67.2-11.2-134.4-11.2-201.6-6.4-54.4 3.2-112 3.2-153.6-35.2-11.2-11.2-36.8-44.8-54.4-44.8-16 0-41.6 33.6-54.4 44.8-41.6 38.4-99.2 38.4-153.6 35.2-67.2-4.8-134.4-4.8-201.6 4.8-33.6 4.8-64 16-102.4 24 62.4-115.2 136-211.2 257.6-257.6 81.6-32 160-19.2 225.6 43.2 8 8 19.2 20.8 28.8 20.8 11.2 0 20.8-12.8 28.8-20.8 65.6-62.4 144-73.6 225.6-43.2 48 19.2 88 44.8 123.2 76.8v-788.8zM395.2 702.4c-59.2-27.2-153.6-3.2-193.6 49.6-17.6 22.4-12.8 41.6 16 52.8 32 11.2 64 9.6 97.6 11.2 1.6 0 3.2 0 3.2 0 25.6-1.6 51.2-3.2 75.2-14.4 20.8-9.6 41.6-19.2 43.2-46.4 0-28.8-19.2-43.2-41.6-52.8zM822.4 752c-40-51.2-134.4-76.8-193.6-49.6-22.4 9.6-41.6 22.4-40 51.2 1.6 27.2 22.4 36.8 43.2 46.4 24 11.2 49.6 12.8 75.2 14.4 1.6 0 3.2 0 3.2 0 32 0 65.6 1.6 97.6-11.2 25.6-9.6 30.4-28.8 14.4-51.2z" />
</font></defs></svg>